<svg width="24" height="24" viewBox="0 0 24 24" fill="none" xmlns="http://www.w3.org/2000/svg">
<rect x="0.00012207" width="24" height="24" rx="4" fill="white"/>
<path d="M10.2784 14.2269L10.0137 18.1357C10.3924 18.1357 10.5564 17.9649 10.7531 17.7598L12.5284 15.9783L16.2072 18.807C16.8819 19.2018 17.3572 18.9939 17.5392 18.1553L19.954 6.27498L19.9546 6.27428C20.1686 5.22708 19.5939 4.81758 18.9366 5.07448L4.74293 10.7802C3.77424 11.175 3.7889 11.7419 4.57825 11.9988L8.20701 13.1839L16.6359 7.64627C17.0326 7.37047 17.3932 7.52307 17.0966 7.79887L10.2784 14.2269Z" fill="#586166"/>
</svg>
