<svg width="24" height="24" viewBox="0 0 24 24" fill="none" xmlns="http://www.w3.org/2000/svg">
<mask id="path-1-inside-1" fill="white">
<path d="M16.1388 5.28C16.6065 5.27961 17.0696 5.37224 17.5009 5.55248C17.9322 5.73271 18.3231 5.99691 18.6505 6.3296C19.3253 7.01208 19.7036 7.93162 19.7036 8.8896C19.7036 9.84758 19.3253 10.7671 18.6505 11.4496L11.9953 18.1632L5.34006 11.4496C4.66528 10.7671 4.28704 9.84758 4.28704 8.8896C4.28704 7.93162 4.66528 7.01208 5.34006 6.3296C5.66775 5.99715 6.05863 5.73309 6.4899 5.55283C6.92116 5.37257 7.38416 5.27973 7.85184 5.27973C8.31952 5.27973 8.78251 5.37257 9.21378 5.55283C9.64504 5.73309 10.0359 5.99715 10.3636 6.3296L11.9953 7.9936L13.6206 6.3424C13.9471 6.00575 14.3383 5.73815 14.771 5.55561C15.2037 5.37307 15.6689 5.27933 16.1388 5.28ZM16.1388 4C15.5 3.99946 14.8675 4.12599 14.2785 4.37216C13.6894 4.61834 13.1556 4.9792 12.7084 5.4336L11.9953 6.1504L11.2822 5.4336C10.8345 4.98002 10.3005 4.61978 9.71157 4.37388C9.12262 4.12798 8.49042 4.00134 7.85184 4.00134C7.21325 4.00134 6.58106 4.12798 5.9921 4.37388C5.40315 4.61978 4.86922 4.98002 4.42144 5.4336C3.51044 6.35752 3 7.60087 3 8.896C3 10.1911 3.51044 11.4345 4.42144 12.3584L11.9953 20L19.5692 12.3584C20.4802 11.4345 20.9906 10.1911 20.9906 8.896C20.9906 7.60087 20.4802 6.35752 19.5692 5.4336C19.1215 4.97978 18.5876 4.61929 17.9987 4.37316C17.4097 4.12703 16.7774 4.00018 16.1388 4Z"/>
</mask>
<path d="M16.1388 5.28C16.6065 5.27961 17.0696 5.37224 17.5009 5.55248C17.9322 5.73271 18.3231 5.99691 18.6505 6.3296C19.3253 7.01208 19.7036 7.93162 19.7036 8.8896C19.7036 9.84758 19.3253 10.7671 18.6505 11.4496L11.9953 18.1632L5.34006 11.4496C4.66528 10.7671 4.28704 9.84758 4.28704 8.8896C4.28704 7.93162 4.66528 7.01208 5.34006 6.3296C5.66775 5.99715 6.05863 5.73309 6.4899 5.55283C6.92116 5.37257 7.38416 5.27973 7.85184 5.27973C8.31952 5.27973 8.78251 5.37257 9.21378 5.55283C9.64504 5.73309 10.0359 5.99715 10.3636 6.3296L11.9953 7.9936L13.6206 6.3424C13.9471 6.00575 14.3383 5.73815 14.771 5.55561C15.2037 5.37307 15.6689 5.27933 16.1388 5.28ZM16.1388 4C15.5 3.99946 14.8675 4.12599 14.2785 4.37216C13.6894 4.61834 13.1556 4.9792 12.7084 5.4336L11.9953 6.1504L11.2822 5.4336C10.8345 4.98002 10.3005 4.61978 9.71157 4.37388C9.12262 4.12798 8.49042 4.00134 7.85184 4.00134C7.21325 4.00134 6.58106 4.12798 5.9921 4.37388C5.40315 4.61978 4.86922 4.98002 4.42144 5.4336C3.51044 6.35752 3 7.60087 3 8.896C3 10.1911 3.51044 11.4345 4.42144 12.3584L11.9953 20L19.5692 12.3584C20.4802 11.4345 20.9906 10.1911 20.9906 8.896C20.9906 7.60087 20.4802 6.35752 19.5692 5.4336C19.1215 4.97978 18.5876 4.61929 17.9987 4.37316C17.4097 4.12703 16.7774 4.00018 16.1388 4Z" fill="#586166" stroke="#586166" mask="url(#path-1-inside-1)"/>
</svg>
